<?xml version="1.0"?>
<VTKFile type="RectilinearGrid" version="1.0" byte_order="LittleEndian" header_type="UInt64">
  <RectilinearGrid WholeExtent="0 1 0 1 0 1">
  <Piece Extent="0 1 0 1 0 1">
    <PointData>
    </PointData>
    <CellData>
    </CellData>
    <Coordinates>
      <DataArray type="Float64" Name="Array 0x558011aae7e0" format="binary" RangeMin="-0.8000000001" RangeMax="0.1000000001">
        EAAAAAAAAAAKWKeZmZnpvxmNB5qZmbk/
      </DataArray>
      <DataArray type="Float64" Name="Array 0x558011aa5210" format="binary" RangeMin="-0.3000000001" RangeMax="0.3000000001">
        EAAAAAAAAAATsE4zMzPTvxOwTjMzM9M/
      </DataArray>
      <DataArray type="Float64" Name="Array 0x558011657b90" format="binary" RangeMin="-0.5000000001" RangeMax="0.2000000001">
        EAAAAAAAAABwvg0AAADgv1mT0JmZmck/
      </DataArray>
    </Coordinates>
  </Piece>
  </RectilinearGrid>
</VTKFile>
